Quantities – My-Blog
…
N (NA)
116716 (0)
21057 (0)
30 (0)

Number of races held by various countries

race_df %>%
  count(country) %>%
  arrange(desc(n))

# A tibble: 61 × 2
   country            n
   <chr>          <int>
 1 United States    438
 2 United Kingdom   110
 3 France            56
 4 Australia         46
 5 Sweden            46
 6 China             45
 7 Canada            32
 8 Spain             27
 9 Japan             24
10 Poland            23
# ℹ 51 more rows

Number of races held by different nationalities

rank_df %>%
  count(nationality) %>%
  arrange(desc(n))

# A tibble: 133 × 2
   nationality     n
   <chr>       <int>
 1 USA         47259
 2 FRA         28905
 3 GBR         11076
 4 JPN          6729
 5 ESP          5478
 6 CHN          4744
 7 CAN          2822
 8 ITA          2794
 9 SWE          2293
10 AUS          1683
# ℹ 123 more rows

Countries have the maximum number of winners

rank_df %>%
  filter(rank %in% c(1, 2, 3)) %>%
  count(nationality) %>%
  arrange(desc(n))

# A tibble: 69 × 2
   nationality     n
   <chr>       <int>
 1 USA          1240
 2 GBR           347
 3 FRA           210
 4 AUS           140
 5 CAN           132
 6 CHN           128
 7 SWE           124
 8 ESP           113
 9 JPN            94
10 ITA            79
# ℹ 59 more rows
…
Enteries where distance is zero

race_df %>%
  filter(distance == 0)

# A tibble: 74 × 13
   race_year_id event    race  city  country date       start_time participation
          <dbl> <chr>    <chr> <chr> <chr>   <date>     <time>     <chr>        
 1        64771 The Old… 100m… Hanm… New Ze… 2021-05-14 10:00      solo         
 2        71220 Run Lov… 100M  <NA>  United… 2021-02-26 00:00      solo         
 3        67160 IDAHO M… 100 … <NA>  United… 2020-09-12 00:00      solo         
 4        67713 Pine cr… 100M… Well… PA, Un… 2020-09-12 00:00      solo         
 5        51777 Chiemga… 100 … Berg… Germany 2020-07-31 13:00      Solo         
 6        66413 Palisad… Moos… Irwin United… 2020-07-17 05:00      solo         
 7        62593 Run Lov… 100M  <NA>  United… 2020-02-28 00:00      solo         
 8        50097 The Gre… The … Hanm… New Ze… 2020-01-17 07:00      solo         
 9        65861 Loup Ga… 100M  Vill… LA, Un… 2019-12-14 00:00      solo         
10        59415 RIO DEL… 100 … <NA>  United… 2019-11-07 00:00      solo         
# ℹ 64 more rows
# ℹ 5 more variables: distance <dbl>, elevation_gain <dbl>,
#   elevation_loss <dbl>, aid_stations <dbl>, participants <dbl>

Distribution of finishing times for race distance around 150

Count for starting times of race

race_times <- race_df %>%
  count(start_time) %>%
  arrange(desc(n))
race_times

# A tibble: 39 × 2
   start_time     n
   <time>     <int>
 1 00:00        513
 2 06:00        114
 3 08:00         63
 4 10:00         60
 5 07:00         58
 6 18:00         50
 7 05:00         48
 8 12:00         38
 9 04:00         30
10 09:00         27
# ℹ 29 more rows
…
pop <- read_delim("../../data/populations.csv")

Rows: 16400 Columns: 4
── Column specification ────────────────────────────────────────────────────────
Delimiter: ","
chr (2): country_code, country_name
dbl (2): year, value

ℹ Use `spec()` to retrieve the full column specification for this data.
ℹ Specify the column types or set `show_col_types = FALSE` to quiet this message.

pop

# A tibble: 16,400 × 4
   country_code country_name  year value
   <chr>        <chr>        <dbl> <dbl>
 1 ABW          Aruba         1960 54608
 2 ABW          Aruba         1961 55811
 3 ABW          Aruba         1962 56682
 4 ABW          Aruba         1963 57475
 5 ABW          Aruba         1964 58178
 6 ABW          Aruba         1965 58782
 7 ABW          Aruba         1966 59291
 8 ABW          Aruba         1967 59522
 9 ABW          Aruba         1968 59471
10 ABW          Aruba         1969 59330
# ℹ 16,390 more rows
…
