A2 - Part II – My-Blog
…
gifts <- gifts_extra %>%
  pivot_longer(
    cols = -Age,               
    names_to = "Gifts",        
    values_to = "AmountsSpent" 
  )

gifts%>%
  dplyr::mutate(
    Age = as_factor(Age),      
    Gifts = as_factor(Gifts)  
  )

# A tibble: 48 × 3
   Age   Gifts               AmountsSpent
   <fct> <fct>                      <dbl>
 1 18-24 SpendingCelebrating           51
 2 18-24 Candy                         70
 3 18-24 Flowers                       50
 4 18-24 Jewelry                       33
 5 18-24 GreetingCards                 33
 6 18-24 EveningOut                    41
 7 18-24 Clothing                      33
 8 18-24 GiftCards                     23
 9 25-34 SpendingCelebrating           40
10 25-34 Candy                         62
# ℹ 38 more rows

gifts

# A tibble: 48 × 3
   Age   Gifts               AmountsSpent
   <chr> <chr>                      <dbl>
 1 18-24 SpendingCelebrating           51
 2 18-24 Candy                         70
 3 18-24 Flowers                       50
 4 18-24 Jewelry                       33
 5 18-24 GreetingCards                 33
 6 18-24 EveningOut                    41
 7 18-24 Clothing                      33
 8 18-24 GiftCards                     23
 9 25-34 SpendingCelebrating           40
10 25-34 Candy                         62
# ℹ 38 more rows
…
