A2-Part I – My-Blog
…
Rows: 3310 Columns: 10
── Column specification ────────────────────────────────────────────────────────
Delimiter: ";"
chr  (4): movie, distributor, mpaa_rating, genre
dbl  (4): production_budget, domestic_gross, worldwide_gross, decade
num  (1): profit_ratio
date (1): release_date

ℹ Use `spec()` to retrieve the full column specification for this data.
ℹ Specify the column types or set `show_col_types = FALSE` to quiet this message.

movies

# A tibble: 3,310 × 10
   release_date movie           production_budget domestic_gross worldwide_gross
   <date>       <chr>                       <dbl>          <dbl>           <dbl>
 1 2005-07-22   November                   250000         191862          191862
 2 1998-08-28   I Married a St…            250000         203134          203134
 3 1997-03-28   Love and Other…            250000         212285          743216
 4 2000-07-14   Chuck&Buck                 250000        1055671         1157672
 5 2011-10-28   Like Crazy                 250000        3395391         3728400
 6 2003-04-11   Better Luck To…            250000        3802390         3809226
 7 2017-04-28   Sleight                    250000        3930990         3934450
 8 2002-06-28   Lovely and Ama…            250000        4210379         4613482
 9 2012-08-17   Compliance                 270000         319285          830700
10 2005-05-06   Fighting Tommy…            300000          10514           10514
# ℹ 3,300 more rows
# ℹ 5 more variables: distributor <chr>, mpaa_rating <chr>, genre <chr>,
#   profit_ratio <dbl>, decade <dbl>
…
decade

mpaa_rating

distributor

genre

Analyse the qualitative data

Date of release

movies_modified %>% count(release_date)

# A tibble: 1,723 × 2
   release_date     n
   <date>       <int>
 1 1936-02-05       1
 2 1939-12-15       1
 3 1940-02-09       1
 4 1942-08-13       1
 5 1943-01-23       1
 6 1946-01-01       1
 7 1953-02-05       1
 8 1954-12-23       1
 9 1956-02-16       1
10 1956-10-17       1
# ℹ 1,713 more rows

movies_modified %>% 
  count(release_date) %>%
  arrange(desc(n))

# A tibble: 1,723 × 2
   release_date     n
   <date>       <int>
 1 2000-12-22       8
 2 2005-09-30       7
 3 2010-10-08       7
 4 2011-07-29       7
 5 1998-11-20       6
 6 2002-10-25       6
 7 2005-10-21       6
 8 2006-04-28       6
 9 2006-08-11       6
10 2006-09-22       6
# ℹ 1,713 more rows
…
Observations:

By counting the number of movies released in each decade, we can identify which decades had the highest number of releases according to the dataset. This trend indicates growth in the industry and its production capabilities, evident during the 1990s, 2000s, and 2010s, which highlight improved production resources and greater accessibility to films.

Movie

movies_modified %>% count(movie)

# A tibble: 3,310 × 2
   movie                     n
   <chr>                 <int>
 1 10 Days in a Madhouse     1
 2 10,000 B.C.               1
 3 102 Dalmatians            1
 4 12 Rounds                 1
 5 12 Years a Slave          1
 6 127 Hours                 1
 7 13 Going On 30            1
 8 16 Blocks                 1
 9 17 Again                  1
10 2 Fast 2 Furious          1
# ℹ 3,300 more rows
…
