A2- Part III – My-Blog
…
school <- read_csv("../../data/school.csv")

Rows: 577 Columns: 99
── Column specification ────────────────────────────────────────────────────────
Delimiter: ","
chr  (2): State.Code, State.Name
dbl (97): Year, Total.Math, Total.Test-takers, Total.Verbal, Academic Subjec...

ℹ Use `spec()` to retrieve the full column specification for this data.
ℹ Specify the column types or set `show_col_types = FALSE` to quiet this message.

school

# A tibble: 577 × 99
    Year State.Code State.Name       Total.Math `Total.Test-takers` Total.Verbal
   <dbl> <chr>      <chr>                 <dbl>               <dbl>        <dbl>
 1  2005 AL         Alabama                 559                3985          567
 2  2005 AK         Alaska                  519                3996          523
 3  2005 AZ         Arizona                 530               18184          526
 4  2005 AR         Arkansas                552                1600          563
 5  2005 CA         California              522              186552          504
 6  2005 CO         Colorado                560               11990          560
 7  2005 CT         Connecticut             517               34313          517
 8  2005 DE         Delaware                502                6257          503
 9  2005 DC         District Of Col…        478                3622          490
10  2005 FL         Florida                 498               93505          498
# ℹ 567 more rows
# ℹ 93 more variables: `Academic Subjects.Arts/Music.Average GPA` <dbl>,
#   `Academic Subjects.Arts/Music.Average Years` <dbl>,
#   `Academic Subjects.English.Average GPA` <dbl>,
#   `Academic Subjects.English.Average Years` <dbl>,
#   `Academic Subjects.Foreign Languages.Average GPA` <dbl>,
#   `Academic Subjects.Foreign Languages.Average Years` <dbl>, …
…
Cleaning the dataset

cleaned <- school %>%
  clean_names(case = "big_camel")
cleaned

# A tibble: 577 × 99
    Year StateCode StateName            TotalMath TotalTestTakers TotalVerbal
   <dbl> <chr>     <chr>                    <dbl>           <dbl>       <dbl>
 1  2005 AL        Alabama                    559            3985         567
 2  2005 AK        Alaska                     519            3996         523
 3  2005 AZ        Arizona                    530           18184         526
 4  2005 AR        Arkansas                   552            1600         563
 5  2005 CA        California                 522          186552         504
 6  2005 CO        Colorado                   560           11990         560
 7  2005 CT        Connecticut                517           34313         517
 8  2005 DE        Delaware                   502            6257         503
 9  2005 DC        District Of Columbia       478            3622         490
10  2005 FL        Florida                    498           93505         498
# ℹ 567 more rows
# ℹ 93 more variables: AcademicSubjectsArtsMusicAverageGpa <dbl>,
#   AcademicSubjectsArtsMusicAverageYears <dbl>,
#   AcademicSubjectsEnglishAverageGpa <dbl>,
#   AcademicSubjectsEnglishAverageYears <dbl>,
#   AcademicSubjectsForeignLanguagesAverageGpa <dbl>,
#   AcademicSubjectsForeignLanguagesAverageYears <dbl>, …
…
GenderFemaleMath / GenderMaleMath / GenderFemaleVerbal / GenderMaleVerbal: These show how well boys and girls did in math and verbal sections, highlighting gender differences in performance.

Family_income: This indicates the income level of students’ families, helping to see how money affects test scores.

Score Ranges: This groups students by their test scores, helping to understand how many students perform at different levels.

Academic Subjects Average GPA: This shows students’ overall grades, which can predict how well they do on tests.

Analyzing the qualitative data

StateName

school_modified%>% count(StateName)

# A tibble: 53 × 2
   StateName                n
   <fct>                <int>
 1 Alabama                 11
 2 Alaska                  11
 3 Arizona                 11
 4 Arkansas                11
 5 California              11
 6 Colorado                11
 7 Connecticut             11
 8 Delaware                11
 9 District Of Columbia    11
10 Florida                 11
# ℹ 43 more rows

Observations

It takes a count of test takers from various states. Most states, including New Hampshire, New Jersey, and New York, have 11 observations each. However, Puerto Rico, Virgin Islands and West Virginia have only 9 observations. This uniformity in the number of observations suggests that data collection was relatively consistent across most states, allowing for reliable comparisons.

StateCode

school_modified%>% count(StateCode)

# A tibble: 53 × 2
   StateCode     n
   <fct>     <int>
 1 AK           11
 2 AL           11
 3 AR           11
 4 AZ           11
 5 CA           11
 6 CO           11
 7 CT           11
 8 DC           11
 9 DE           11
10 FL           11
# ℹ 43 more rows
…
Observations

The dataset covers years from 2005 to 2014, with varying numbers of observations: 53 observations for 2007, 2008, 2011, 2012, 2013, 2014 and 2015 52 observations for the years 2005, 2006 51 observations for 2009 and 2010 These changes in the number of observations each year might indicate differences in data collection methods or participation rates, with the highest number of observations occurring after 2010.

Analyzing the quantitative data

school_modified

# A tibble: 577 × 99
   Year  StateCode StateName            TotalMath TotalTestTakers TotalVerbal
   <fct> <fct>     <fct>                    <dbl>           <dbl>       <dbl>
 1 2005  AL        Alabama                    559            3985         567
 2 2005  AK        Alaska                     519            3996         523
 3 2005  AZ        Arizona                    530           18184         526
 4 2005  AR        Arkansas                   552            1600         563
 5 2005  CA        California                 522          186552         504
 6 2005  CO        Colorado                   560           11990         560
 7 2005  CT        Connecticut                517           34313         517
 8 2005  DE        Delaware                   502            6257         503
 9 2005  DC        District Of Columbia       478            3622         490
10 2005  FL        Florida                    498           93505         498
# ℹ 567 more rows
# ℹ 93 more variables: AcademicSubjectsArtsMusicAverageGpa <dbl>,
#   AcademicSubjectsArtsMusicAverageYears <dbl>,
#   AcademicSubjectsEnglishAverageGpa <dbl>,
#   AcademicSubjectsEnglishAverageYears <dbl>,
#   AcademicSubjectsForeignLanguagesAverageGpa <dbl>,
#   AcademicSubjectsForeignLanguagesAverageYears <dbl>, …
…
Plot: All Subjects

subjects <- school_modified %>% 
  rename(
    ArtsMusic = AcademicSubjectsArtsMusicAverageGpa,
    English = AcademicSubjectsEnglishAverageGpa ,
    ForeignLanguages = AcademicSubjectsForeignLanguagesAverageGpa ,
    Mathematics = AcademicSubjectsMathematicsAverageGpa,
    NaturalSciences = AcademicSubjectsNaturalSciencesAverageGpa ,
    SocialSciencesHistory = AcademicSubjectsSocialSciencesHistoryAverageGpa
  ) %>%
  select(ArtsMusic,English,ForeignLanguages,Mathematics,NaturalSciences,SocialSciencesHistory)
subjects

# A tibble: 577 × 6
   ArtsMusic English ForeignLanguages Mathematics NaturalSciences
       <dbl>   <dbl>            <dbl>       <dbl>           <dbl>
 1      3.92    3.53             3.54        3.41            3.52
 2      3.76    3.35             3.34        3.06            3.25
 3      3.85    3.45             3.41        3.25            3.43
 4      3.9     3.61             3.64        3.46            3.55
 5      3.76    3.32             3.29        3.05            3.2 
 6      3.88    3.49             3.41        3.33            3.43
 7      3.66    3.13             3.03        3               3.07
 8      3.71    3.21             3.18        3.07            3.19
 9      3.54    3.03             3.04        2.91            2.99
10      3.77    3.29             3.3         3.07            3.27
# ℹ 567 more rows
# ℹ 1 more variable: SocialSciencesHistory <dbl>
…
name_data <- name_data %>%
  select(names, values) %>%
  dplyr::mutate(
    names = factor(names,
      levels = c("LessThan20K", "Between20_40K", "Between40_60K","Between60_80K", "Between80_100K", "MoreThan100K"),
      labels = c("LessThan20K", "Between20_40K", "Between40_60K","Between60_80K", "Between80_100K", "MoreThan100K"),
      ordered = TRUE
    )
  )
name_data

# A tibble: 3,462 × 2
   names          values
   <ord>           <dbl>
 1 Between40_60K     539
 2 Between60_80K     550
 3 Between80_100K    566
 4 LessThan20K       462
 5 Between20_40K     513
 6 MoreThan100K      588
 7 Between40_60K     517
 8 Between60_80K     513
 9 Between80_100K    528
10 LessThan20K       464
# ℹ 3,452 more rows
…
